Robust Methods Lab
…
Pepper Joe measured the length and heat of 85 chili peppers. He wants to know if smaller peppers are hotter than longer peppers.

#read data.table to read in
chili<- read.delim("https://raw.githubusercontent.com/jgeller112/psy504-advanced-stats/main/slides/03-Robust_Methods/data/chillis.csv")

Some species display sexual size dimorphism – in which one sex is on average larger than the other. Such a pattern can tell us about the species’ ecology and mating habits. Do penguins display this sex difference in size? Let’s just look at a subset of the palmerpenguins data set, which we’ll call my_penguins.

my_penguins <- penguins %>% 
  filter(species == "Adelie",
         !is.na(sex), 
         island == "Torgersen") 
my_penguins

# A tibble: 47 × 8
   species island    bill_length_mm bill_depth_mm flipper_…¹ body_…² sex    year
   <fct>   <fct>              <dbl>         <dbl>      <int>   <int> <fct> <int>
 1 Adelie  Torgersen           39.1          18.7        181    3750 male   2007
 2 Adelie  Torgersen           39.5          17.4        186    3800 fema…  2007
 3 Adelie  Torgersen           40.3          18          195    3250 fema…  2007
 4 Adelie  Torgersen           36.7          19.3        193    3450 fema…  2007
 5 Adelie  Torgersen           39.3          20.6        190    3650 male   2007
 6 Adelie  Torgersen           38.9          17.8        181    3625 fema…  2007
 7 Adelie  Torgersen           39.2          19.6        195    4675 male   2007
 8 Adelie  Torgersen           41.1          17.6        182    3200 fema…  2007
 9 Adelie  Torgersen           38.6          21.2        191    3800 male   2007
10 Adelie  Torgersen           34.6          21.1        198    4400 male   2007
# … with 37 more rows, and abbreviated variable names ¹​flipper_length_mm,
#   ²​body_mass_g
…
c. Permute the group labels (10000x)

sample_size <- nrow(my_penguins)
perm_reps   <- 10000 
many.perm <- my_penguins    %>%
  rep_sample_n(size = sample_size, replace = FALSE, reps = perm_reps) %>% 
  mutate(perm_sex = sample(sex, size = n(), replace = FALSE))  %>%
  group_by(replicate, perm_sex)
many.perm

# A tibble: 470,000 × 10
# Groups:   replicate, perm_sex [20,000]
   replicate species island  bill_…¹ bill_…² flipp…³ body_…⁴ sex    year perm_…⁵
       <int> <fct>   <fct>     <dbl>   <dbl>   <int>   <int> <fct> <int> <fct>  
 1         1 Adelie  Torger…    39.6    17.2     196    3550 fema…  2008 female 
 2         1 Adelie  Torger…    34.6    21.1     198    4400 male   2007 female 
 3         1 Adelie  Torger…    39.2    19.6     195    4675 male   2007 female 
 4         1 Adelie  Torger…    35.7    17       189    3350 fema…  2009 male   
 5         1 Adelie  Torger…    40.2    17       176    3450 fema…  2009 male   
 6         1 Adelie  Torger…    37.2    19.4     184    3900 male   2008 male   
 7         1 Adelie  Torger…    35.5    17.5     190    3700 fema…  2008 male   
 8         1 Adelie  Torger…    37.3    20.5     199    3775 male   2009 female 
 9         1 Adelie  Torger…    38.8    17.6     191    3275 fema…  2009 female 
10         1 Adelie  Torger…    34.4    18.4     184    3325 fema…  2007 male   
# … with 469,990 more rows, and abbreviated variable names ¹​bill_length_mm,
#   ²​bill_depth_mm, ³​flipper_length_mm, ⁴​body_mass_g, ⁵​perm_sex

d. Plot the null-hypothesis distribution (NHD) for the difference

many.perm.means <- many.perm %>%
  summarise(mean_group = mean(body_mass_g), .groups = "drop")%>%
  group_by(replicate)
many.perm.means

# A tibble: 20,000 × 3
# Groups:   replicate [10,000]
   replicate perm_sex mean_group
       <int> <fct>         <dbl>
 1         1 female        3708.
 2         1 male          3709.
 3         2 female        3725 
 4         2 male          3691.
 5         3 female        3643.
 6         3 male          3777.
 7         4 female        3805.
 8         4 male          3608.
 9         5 female        3751.
10         5 male          3664.
# … with 19,990 more rows
…
